digraph program_graph {rankdir=LR;
        node [shape = circle]; q▷;
        node [shape = doublecircle]; q◀; 
        node [shape = circle]
q▷ -> q1 [label = "(x=0|y=0)&(!false)"];
q1 -> q◀ [label = "skip"];
q▷ -> q2 [label = "(x=0)&(!(x=0|y=0|false))"];
q2 -> q◀ [label = "skip"];
}